NOMBRES_VE_CONTINUAS ESHYRN ESHYSALTO ESHYENSO 
ESHYRN
MINIMO -4.089999999999957
MAXIMO 4.089999999999957
CANT_PUNTOS 5
EQUIESPACIADA NO
VALORES -4.089999999999957 -0.6744968553459123 -0.0 0.6744968553459123 4.089999999999957 
ESHYSALTO
MINIMO -4.089999999999957
MAXIMO 4.089999999999957
CANT_PUNTOS 5
EQUIESPACIADA NO
VALORES -4.089999999999957 -0.6744968553459123 -0.0 0.6744968553459123 4.089999999999957 
ESHYENSO
MINIMO -4.089999999999957
MAXIMO 4.089999999999957
CANT_PUNTOS 5
EQUIESPACIADA NO
VALORES -4.089999999999957 -0.6744968553459123 -0.0 0.6744968553459123 4.089999999999957 

