TIPO_AGREGADOR LINEAL 
NOMBRE_ESTIMACION  VARVN-Thu Sep 14 12:49:14 UYT 2023
PROCESO_SIMULACION  var4
PROCESO_OPTIMIZACION  var4Optim
VARS_ESTADO_SIMULACION APORTE-BONETE  APORTE-PALMAR  APORTE-SALTO  CMgBrasil-Sur  ENSO34  
VARS_EXOGENAS 
VARS_ESTADO_OPTIMIZACION ESHY1  
MATRIZ_POR_FILAS
0.43291087970331804 0.19403934274055123 0.08055784970055177 0.0 0.707508072144421 

