// MATRIZ PARA CALCULAR ESPERANZA CONDICIONAL
MAT_ESP_COND
0.9284123827972995 
0.7408669764743214 
0.5855795584901027 
// MATRIZ PARA CALCULAR VARIANZA CONDICIONAL
MAT_VAR_COND
0.07739230871111957 -0.155706498869584 -0.04084997002213475 
-0.155706498869584 0.41041011073626865 -0.1517998653842344 
-0.04084997002213475 -0.15179986538423434 0.5851638634921831 
MAT_VALPROP
0.39661298854193455 0.0 0.0 
0.0 0.0 0.0 
0.0 0.0 0.6763532943976371 
MAT_VALPROP_C
0.39661298854193455 0.0 0.0 
0.0 0.0 0.0 
0.0 0.0 0.6763532943976371 
MAT_VECPROP
0.4292377775238312 -0.8996500532549849 -0.07990439302507074 
-0.7466845299640796 -0.4032412055565192 0.5290167699172184 
-0.5081507090014971 -0.16741060844411274 -0.8448411360259679 

