Potencia               de                 1MW        eolicaUni FACTOR    PROMEDIO  XXXX      aleatorizado
CANTIDAD_VA  16
CANTIDAD_VE  0
CANTIDAD_ESCENARIOS  110
NOMBRE_PASO  SEMANA
ANIO_INI   2019
PASO_INI  1
ANIO_FIN   2040
PASO_FIN  52
CANT_MAXIMA_PASOS  52