TIPO_AGREGADOR LINEAL 
NOMBRE_ESTIMACION  VARVN-Fri Aug 11 14:40:26 UYT 2023
PROCESO_SIMULACION  varAportesENSOBR5C-ENSOAgosto-3VE
PROCESO_OPTIMIZACION  varAportesENSOBROptim5C-ENSOAgosto-3VE
VARS_ESTADO_SIMULACION APORTE-BONETE  APORTE-PALMAR  APORTE-SALTO  CMgBrasil-Sur  ENSO34  
VARS_EXOGENAS 
VARS_ESTADO_OPTIMIZACION ESHYRN  ESHYSALTO  ESHYENSO  
MATRIZ_POR_FILAS
0.7862990656186213 0.352435018573014 0.0 0.0 0.0 
0.0 0.0 1.0368395733173947 0.0 0.0 
0.0 0.0 0.0 0.0 1.036009302153547 

