$Lambdas
0.028246636 0.052463434 0.013588512 0.136996047 0.014186520 0.062204934 0.010391172 0.019388659 0.006752704 0.032194655 0.032648595 0.009046880

$Medias
-3.803350 -3.499381 -4.299958 -2.991832 -4.661725 -3.700899 -4.459387 -4.301752 -4.447984 -3.923846 -3.916536 -3.969634

$Desvios
2.924403 2.624605 2.857020 1.789994 2.663141 2.266994 2.740471 2.740495 2.917254 2.791657 2.856379 3.148014
